{
  "configs": [{"id": 1, "API_DOMAIN": "http://locahost:3000"}],
  "users": [
    {
      "id": 1,
      "name": "Sages",
      "password": "admin",
      "role": "admin"
    }
  ],
  "playlists": [
    {
      "id": 1,
      "name": "Ulubione"
    },
    {
      "id": 2,
      "name": "Do programowania"
    }
  ],
  "playlistSongs": [
    {
      "id": 1,
      "songId": 5,
      "playlistId": 1
    },
    {
      "id": 2,
      "songId": 30,
      "playlistId": 1
    },
    {
      "id": 2,
      "songId": 60,
      "playlistId": 2
    },
    {
      "id": 2,
      "songId": 80,
      "playlistId": 2
    }
  ],
  "artists": [
    {
      "id": 1,
      "name": "The Tallest Man on Earth",
      "img": "TheTallestManOnEarth.jpg",
      "location": {
        "lat": 7.889015076280472,
        "lng": -20.950250495971794
      }
    },
    {
      "id": 2,
      "name": "Dave Matthews",
      "img": "DaveMatthews.jpg",
      "location": {
        "lat": 77.41550616664603,
        "lng": -13.807673845543462
      }
    },
    {
      "id": 3,
      "name": "Sublime",
      "img": "Sublime.png",
      "location": {
        "lat": -75.47816036304383,
        "lng": 43.00273702007033
      }
    },
    {
      "id": 4,
      "name": "Tom Petty",
      "img": "TomPetty.png",
      "location": {
        "lat": 6.1109120169210485,
        "lng": 24.026320408923212
      }
    },
    {
      "id": 5,
      "name": "Violent Femmes",
      "img": "ViolentFemmes.jpg",
      "location": {
        "lat": -47.60981187372035,
        "lng": 52.45699473427936
      }
    },
    {
      "id": 6,
      "name": "Don McLean",
      "img": "DonMcLean.jpg",
      "location": {
        "lat": -11.221040041023372,
        "lng": -0.5471211939733394
      }
    },
    {
      "id": 7,
      "name": "Van Morrison",
      "img": "VanMorrison.jpg",
      "location": {
        "lat": -5.755318141549395,
        "lng": 59.12425790386368
      }
    },
    {
      "id": 8,
      "name": "Jimmy Buffett",
      "img": "JimmyBuffett.png",
      "location": {
        "lat": 73.53674779910187,
        "lng": -76.12562008007916
      }
    },
    {
      "id": 9,
      "name": "Jack Johnson",
      "img": "JackJohnson.png",
      "location": {
        "lat": 8.304396186019119,
        "lng": 43.93506570299064
      }
    },
    {
      "id": 10,
      "name": "The Lumineers",
      "img": "TheLumineers.png",
      "location": {
        "lat": 52.11665842047634,
        "lng": 73.53937845579009
      }
    },
    {
      "id": 11,
      "name": "Conor Oberst",
      "img": "ConorOberst.jpg",
      "location": {
        "lat": -58.149738171547476,
        "lng": -70.87372102381198
      }
    },
    {
      "id": 12,
      "name": "fun.",
      "img": "Fun.png",
      "location": {
        "lat": 8.688628552139079,
        "lng": -35.487549596312604
      }
    },
    {
      "id": 13,
      "name": "Donovan",
      "img": "Donovan.jpg",
      "location": {
        "lat": -57.789674959969766,
        "lng": -55.45722438294575
      }
    },
    {
      "id": 14,
      "name": "Harry Chapin",
      "img": "HarryChapin.jpg",
      "location": {
        "lat": 19.513581011076838,
        "lng": 72.72303607245823
      }
    },
    {
      "id": 15,
      "name": "Radiohead",
      "img": "Radiohead.jpg",
      "location": {
        "lat": -1.975252081886083,
        "lng": -64.93067865277712
      }
    },
    {
      "id": 16,
      "name": "Johnny Cash",
      "img": "JohnnyCash.png",
      "location": {
        "lat": -3.101751852893244,
        "lng": 77.94924461019758
      }
    },
    {
      "id": 17,
      "name": "Mason Jennings",
      "img": "MasonJennings.jpg",
      "location": {
        "lat": -44.69409353738676,
        "lng": -37.53765013860029
      }
    },
    {
      "id": 18,
      "name": "Regina Spektor",
      "img": "ReginaSpektor.jpg",
      "location": {
        "lat": -71.84476891296387,
        "lng": 22.385044873363142
      }
    },
    {
      "id": 19,
      "name": "Oasis",
      "img": "Oasis.png",
      "location": {
        "lat": 35.195572261301294,
        "lng": -44.094545444289786
      }
    },
    {
      "id": 20,
      "name": "Journey",
      "img": "Journey.jpg",
      "location": {
        "lat": -6.6638763893209045,
        "lng": 52.32659001092992
      }
    },
    {
      "id": 21,
      "name": "Elvis Perkins",
      "img": "ElvisPerkins.jpg",
      "location": {
        "lat": 37.89253003113778,
        "lng": -43.16988607073608
      }
    },
    {
      "id": 22,
      "name": "First Aid Kit",
      "img": "FirstAidKit.png",
      "location": {
        "lat": -64.26361324167812,
        "lng": -49.78236834358121
      }
    },
    {
      "id": 23,
      "name": "Cat Stevens",
      "img": "CatStevens.jpg",
      "location": {
        "lat": 23.427878388790973,
        "lng": 53.46354164345425
      }
    },
    {
      "id": 24,
      "name": "Blitzen Trapper",
      "img": "BlitzenTrapper.jpg",
      "location": {
        "lat": 26.733118761605184,
        "lng": 73.66359934901402
      }
    },
    {
      "id": 25,
      "name": "Emmylou Harris",
      "img": "EmmylouHarris.jpg",
      "location": {
        "lat": -68.17786660594486,
        "lng": 42.59182654346212
      }
    },
    {
      "id": 26,
      "name": "Arcade Fire",
      "img": "ArcadeFire.jpg",
      "location": {
        "lat": -65.2461698999723,
        "lng": -76.51993384304511
      }
    },
    {
      "id": 27,
      "name": "Neil Young",
      "img": "NeilYoung.png",
      "location": {
        "lat": 63.216669028068736,
        "lng": 23.257385063290812
      }
    },
    {
      "id": 28,
      "name": "Whitesnake",
      "img": "Whitesnake.jpg",
      "location": {
        "lat": -64.9306732549785,
        "lng": 33.89024314396491
      }
    },
    {
      "id": 29,
      "name": "Gin Blossoms",
      "img": "GinBlossoms.jpg",
      "location": {
        "lat": -50.63633763652202,
        "lng": 9.633084129260752
      }
    },
    {
      "id": 30,
      "name": "Train",
      "img": "Train.jpg",
      "location": {
        "lat": -15.387249358851918,
        "lng": -49.67919598282968
      }
    },
    {
      "id": 31,
      "name": "Father John Misty",
      "img": "FatherJohnMisty.jpg",
      "location": {
        "lat": 13.533398363624869,
        "lng": 50.067794964116246
      }
    },
    {
      "id": 32,
      "name": "Edward Sharpe & The Magnetic Zeros",
      "img": "EdwardSharpeAndTheMagneticZeroes.png",
      "location": {
        "lat": -2.5517189546253576,
        "lng": -1.6040730883221244
      }
    },
    {
      "id": 33,
      "name": "The Eagles",
      "img": "TheEagles.jpg",
      "location": {
        "lat": 6.651676280578982,
        "lng": -2.2544208397082173
      }
    },
    {
      "id": 34,
      "name": "The White Stripes",
      "img": "TheWhiteStripes.jpg",
      "location": {
        "lat": 36.83016216456889,
        "lng": 7.530931106244836
      }
    },
    {
      "id": 35,
      "name": "OAR",
      "img": "OAR.jpg",
      "location": {
        "lat": 70.71481934367364,
        "lng": -55.687063650724156
      }
    },
    {
      "id": 36,
      "name": "Taylor Swift",
      "img": "TaylorSwift.png",
      "location": {
        "lat": 26.775406914988025,
        "lng": -72.47393938825016
      }
    },
    {
      "id": 37,
      "name": "Weezer",
      "img": "Weezer.jpg",
      "location": {
        "lat": 48.26273747507625,
        "lng": 35.36184105980766
      }
    },
    {
      "id": 38,
      "name": "Jason Mraz",
      "img": "JasonMraz.png",
      "location": {
        "lat": 32.34259662961328,
        "lng": 44.49864503566481
      }
    },
    {
      "id": 39,
      "name": "John Mellencamp",
      "img": "JohnMellencamp.png",
      "location": {
        "lat": -55.487154530745784,
        "lng": 27.961006637270813
      }
    },
    {
      "id": 40,
      "name": "Bill Withers",
      "img": "BillWithers.png",
      "location": {
        "lat": 32.779029503788706,
        "lng": -70.79825679118389
      }
    },
    {
      "id": 41,
      "name": "Of Monsters and Men",
      "img": "OfMonstersAndMen.png",
      "location": {
        "lat": 59.864778466288016,
        "lng": 54.73401953081648
      }
    },
    {
      "id": 42,
      "name": "The Avett Brothers",
      "img": "AvettBrothers.jpg",
      "location": {
        "lat": 32.97479128135183,
        "lng": -22.26607410859657
      }
    },
    {
      "id": 43,
      "name": "The Kinks",
      "img": "Kinks.jpg",
      "location": {
        "lat": 77.53481562290654,
        "lng": -75.34620443408474
      }
    },
    {
      "id": 44,
      "name": "Ricky Nelson",
      "img": "RickyNelson.jpg",
      "location": {
        "lat": -65.08031759789534,
        "lng": -77.63906567871982
      }
    },
    {
      "id": 45,
      "name": "Paul Simon",
      "img": "PaulSimon.jpg",
      "location": {
        "lat": -41.340414222916806,
        "lng": 43.50562146786224
      }
    },
    {
      "id": 46,
      "name": "Metallica",
      "img": "Metallica.jpg",
      "location": {
        "lat": 28.46518264657803,
        "lng": -25.026406426174184
      }
    },
    {
      "id": 47,
      "name": "Miley Cyrus",
      "img": "MileyCyrus.jpg",
      "location": {
        "lat": -18.055034512863735,
        "lng": 68.55033622677814
      }
    },
    {
      "id": 48,
      "name": "Guns N' Roses",
      "img": "GunsNRoses.png",
      "location": {
        "lat": 70.64312599808122,
        "lng": 42.52876724750976
      }
    },
    {
      "id": 49,
      "name": "Bob Marley",
      "img": "BobMarley.jpg",
      "location": {
        "lat": -47.90980082081244,
        "lng": 71.7163376581824
      }
    },
    {
      "id": 50,
      "name": "Elton John",
      "img": "EltonJohn.jpg",
      "location": {
        "lat": 39.28831138337824,
        "lng": -62.54116625844386
      }
    },
    {
      "id": 51,
      "name": "She & Him",
      "img": "SheAndHim.jpg",
      "location": {
        "lat": 35.71738056980064,
        "lng": -39.26468088835598
      }
    },
    {
      "id": 52,
      "name": "Bob Dylan",
      "img": "BobDylan.jpg",
      "location": {
        "lat": -52.96968695492424,
        "lng": -69.19036823900737
      }
    },
    {
      "id": 53,
      "name": "Keane",
      "img": "Keane.jpg",
      "location": {
        "lat": 11.470111339709632,
        "lng": -33.457216562096974
      }
    },
    {
      "id": 54,
      "name": "David Bowie",
      "img": "DavidBowie.jpg",
      "location": {
        "lat": 27.05635170785908,
        "lng": -72.02755559758955
      }
    },
    {
      "id": 55,
      "name": "Stealers Wheel",
      "img": "StealersWheel.png",
      "location": {
        "lat": -48.86911747680983,
        "lng": -42.572185370062066
      }
    },
    {
      "id": 56,
      "name": "Bryan Adams",
      "img": "BryanAdams.jpg",
      "location": {
        "lat": -57.36926120747391,
        "lng": 38.22242624104753
      }
    },
    {
      "id": 57,
      "name": "Lynyrd Skynyrd",
      "img": "LynyrdSkynyrd.jpg",
      "location": {
        "lat": 74.26261192199473,
        "lng": 69.157356277627
      }
    },
    {
      "id": 58,
      "name": "Ben Harper",
      "img": "BenHarper.jpg",
      "location": {
        "lat": 64.74668404558804,
        "lng": -37.68742395153691
      }
    },
    {
      "id": 59,
      "name": "Dispatch",
      "img": "Dispatch.jpg",
      "location": {
        "lat": 62.80903873187947,
        "lng": -15.30183779656727
      }
    },
    {
      "id": 60,
      "name": "Chvrches",
      "img": "Chvrches.jpg",
      "location": {
        "lat": -40.81088536758074,
        "lng": 24.735903043492442
      }
    },
    {
      "id": 61,
      "name": "The Band",
      "img": "TheBand.jpg",
      "location": {
        "lat": -72.28036617116655,
        "lng": -71.87886415697304
      }
    },
    {
      "id": 62,
      "name": "The Church",
      "img": "TheChurch.jpg",
      "location": {
        "lat": 30.72304379048947,
        "lng": 11.050245582855851
      }
    },
    {
      "id": 63,
      "name": "Coldplay",
      "img": "Coldplay.jpg",
      "location": {
        "lat": 42.203802269584614,
        "lng": -78.94625198052758
      }
    },
    {
      "id": 64,
      "name": "John Lennon",
      "img": "JohnLennon.jpg",
      "location": {
        "lat": -7.513717542410774,
        "lng": 45.3420785006183
      }
    },
    {
      "id": 65,
      "name": "Billy Bragg & Wilco",
      "img": "BillyBraggWilco.jpg",
      "location": {
        "lat": 7.366832977422064,
        "lng": -30.63157135793336
      }
    },
    {
      "id": 66,
      "name": "The Beatles",
      "img": "TheBeatles.jpg",
      "location": {
        "lat": 76.53179492998356,
        "lng": -57.357474115156606
      }
    },
    {
      "id": 67,
      "name": "Vampire Weekend",
      "img": "VampireWeekend.jpg",
      "location": {
        "lat": 39.02293527020686,
        "lng": 15.727443544122195
      }
    },
    {
      "id": 68,
      "name": "DeVotchKa",
      "img": "DeVotchKa.jpg",
      "location": {
        "lat": -35.82574320223632,
        "lng": -65.82713320074916
      }
    }
  ],
  "songs": [
    {
      "id": 1,
      "title": "1904",
      "year": "2012",
      "artistId": 1,
      "webUrl": "http://www.songnotes.cc/songs/78-the-tallest-man-on-earth-1904"
    },
    {
      "id": 2,
      "title": "#40",
      "year": "1999",
      "artistId": 2,
      "webUrl": "http://www.songnotes.cc/songs/119-dave-matthews-40"
    },
    {
      "id": 3,
      "title": "40oz to Freedom",
      "year": "1996",
      "artistId": 3,
      "webUrl": "http://www.songnotes.cc/songs/45-sublime-40oz-to-freedom"
    },
    {
      "id": 4,
      "title": "#41",
      "year": "1996",
      "artistId": 2,
      "webUrl": "http://www.songnotes.cc/songs/46-dave-matthews-band-41"
    },
    {
      "id": 5,
      "title": "American Girl",
      "year": "1977",
      "artistId": 4,
      "webUrl": "http://www.songnotes.cc/songs/86-tom-petty-american-girl"
    },
    {
      "id": 6,
      "title": "American Music",
      "year": "1991",
      "artistId": 5,
      "webUrl": "http://www.songnotes.cc/songs/123-violent-femmes-american-music"
    },
    {
      "id": 7,
      "title": "American Pie",
      "year": "1972",
      "artistId": 6,
      "webUrl": "http://www.songnotes.cc/songs/132-don-mclean-american-pie"
    },
    {
      "id": 8,
      "title": "And it Stoned Me",
      "year": "1970",
      "artistId": 7,
      "webUrl": "http://www.songnotes.cc/songs/27-van-morrison-and-it-stoned-me"
    },
    {
      "id": 9,
      "title": "A Sailor's Christmas",
      "year": "1996",
      "artistId": 8,
      "webUrl": "http://www.songnotes.cc/songs/11-jimmy-buffett-a-sailors-christmas"
    },
    {
      "id": 10,
      "title": "Badfish",
      "year": "1996",
      "artistId": 3,
      "webUrl": "http://www.songnotes.cc/songs/21-sublime-badfish"
    },
    {
      "id": 11,
      "title": "Banana Pancakes",
      "year": "2005",
      "artistId": 9,
      "webUrl": "http://www.songnotes.cc/songs/102-jack-johnson-banana-pancakes"
    },
    {
      "id": 12,
      "title": "Barefoot Children",
      "year": "1995",
      "artistId": 8,
      "webUrl": "http://www.songnotes.cc/songs/9-jimmy-buffett-barefoot-children"
    },
    {
      "id": 13,
      "title": "Big Parade",
      "year": "2012",
      "artistId": 10,
      "webUrl": "http://www.songnotes.cc/songs/63-the-lumineers-big-parade"
    },
    {
      "id": 14,
      "title": "Brown Eyed Girl",
      "year": "1967",
      "artistId": 7,
      "webUrl": "http://www.songnotes.cc/songs/69-van-morrison-brown-eyed-girl"
    },
    {
      "id": 15,
      "title": "Cape Canaveral",
      "year": "2008",
      "artistId": 11,
      "webUrl": "http://www.songnotes.cc/songs/75-conor-oberst-cape-canaveral"
    },
    {
      "id": 16,
      "title": "Carry On",
      "year": "2012",
      "artistId": 12,
      "webUrl": "http://www.songnotes.cc/songs/122-fun-carry-on"
    },
    {
      "id": 17,
      "title": "Catch the Wind",
      "year": "1965",
      "artistId": 13,
      "webUrl": "http://www.songnotes.cc/songs/131-donovan-catch-the-wind"
    },
    {
      "id": 18,
      "title": "Cat's in the Cradle",
      "year": "1974",
      "artistId": 14,
      "webUrl": "http://www.songnotes.cc/songs/47-harry-chapin-cats-in-the-cradle"
    },
    {
      "id": 19,
      "title": "Changes in Latitudes, Changes in Attitudes",
      "year": "1977",
      "artistId": 8,
      "webUrl": "http://www.songnotes.cc/songs/38-jimmy-buffett-changes-in-latitudes-changes-in-attitudes"
    },
    {
      "id": 20,
      "title": "Classy Girls",
      "year": "2012",
      "artistId": 10,
      "webUrl": "http://www.songnotes.cc/songs/55-the-lumineers-classy-girls"
    },
    {
      "id": 21,
      "title": "Creep",
      "year": "1993",
      "artistId": 15,
      "webUrl": "http://www.songnotes.cc/songs/36-radiohead-creep"
    },
    {
      "id": 22,
      "title": "Danny Boy",
      "year": "2002",
      "artistId": 16,
      "webUrl": "http://www.songnotes.cc/songs/92-johnny-cash-danny-boy"
    },
    {
      "id": 23,
      "title": "Darkness Between the Fireflies",
      "year": "1997",
      "artistId": 17,
      "webUrl": "http://www.songnotes.cc/songs/16-mason-jennings-darkness-between-the-fireflies"
    },
    {
      "id": 24,
      "title": "Dead Sea",
      "year": "2012",
      "artistId": 10,
      "webUrl": "http://www.songnotes.cc/songs/98-the-lumineers-dead-sea"
    },
    {
      "id": 25,
      "title": "Distantly in Love",
      "year": "1983",
      "artistId": 8,
      "webUrl": "http://www.songnotes.cc/songs/35-jimmy-buffett-distantly-in-love"
    },
    {
      "id": 26,
      "title": "Don't Leave Me (Ne Me Quitte Pas)",
      "year": "2012",
      "artistId": 18,
      "webUrl": "http://www.songnotes.cc/songs/77-regina-spektor-dont-leave-me-no-me-quitte-pas"
    },
    {
      "id": 27,
      "title": "Don't Look Back in Anger",
      "year": "1996",
      "artistId": 19,
      "webUrl": "http://www.songnotes.cc/songs/100-oasis-dont-look-back-in-anger"
    },
    {
      "id": 28,
      "title": "Don't Stop Believin'",
      "year": "1981",
      "artistId": 20,
      "webUrl": "http://www.songnotes.cc/songs/60-journey-dont-stop-believing"
    },
    {
      "id": 29,
      "title": "Doomsday",
      "year": "2009",
      "artistId": 21,
      "webUrl": "http://www.songnotes.cc/songs/120-elvis-perkins-doomsday"
    },
    {
      "id": 30,
      "title": "Do You Remember",
      "year": "2005",
      "artistId": 9,
      "webUrl": "http://www.songnotes.cc/songs/3-jack-johnson-do-you-remember"
    },
    {
      "id": 31,
      "title": "Drink the Water",
      "year": "2001",
      "artistId": 9,
      "webUrl": "http://www.songnotes.cc/songs/32-jack-johnson-drink-the-water"
    },
    {
      "id": 32,
      "title": "Emmylou",
      "year": "2012",
      "artistId": 22,
      "webUrl": "http://www.songnotes.cc/songs/74-first-aid-kit-emmylou"
    },
    {
      "id": 33,
      "title": "Fall Line",
      "year": "2003",
      "artistId": 9,
      "webUrl": "http://www.songnotes.cc/songs/30-jack-johnson-fall-line"
    },
    {
      "id": 34,
      "title": "Father and Son",
      "year": "1970",
      "artistId": 23,
      "webUrl": "http://www.songnotes.cc/songs/28-cat-stevens-father-and-son"
    },
    {
      "id": 35,
      "title": "Flake",
      "year": "2001",
      "artistId": 9,
      "webUrl": "http://www.songnotes.cc/songs/104-jack-johnson-flake"
    },
    {
      "id": 36,
      "title": "Flapper Girl",
      "year": "2012",
      "artistId": 10,
      "webUrl": "http://www.songnotes.cc/songs/101-the-lumineers-flapper-girl"
    },
    {
      "id": 37,
      "title": "Flowers in Your Hair",
      "year": "2012",
      "artistId": 10,
      "webUrl": "http://www.songnotes.cc/songs/96-the-lumineers-flowers-in-your-hair"
    },
    {
      "id": 38,
      "title": "Folsom Prison Blues",
      "year": "1957",
      "artistId": 16,
      "webUrl": "http://www.songnotes.cc/songs/108-johnny-cash-folsom-prison-blues"
    },
    {
      "id": 39,
      "title": "Free Fallin'",
      "year": "1989",
      "artistId": 4,
      "webUrl": "http://www.songnotes.cc/songs/84-tom-petty-free-fallin"
    },
    {
      "id": 40,
      "title": "Furr",
      "year": "2008",
      "artistId": 24,
      "webUrl": "http://www.songnotes.cc/songs/10-blitzen-trapper-furr"
    },
    {
      "id": 41,
      "title": "Get Well Cards",
      "year": "2008",
      "artistId": 11,
      "webUrl": "http://www.songnotes.cc/songs/54-conor-oberst-get-well-cards"
    },
    {
      "id": 42,
      "title": "Gulf Coast Highway",
      "year": "2000",
      "artistId": 25,
      "webUrl": "http://www.songnotes.cc/songs/50-emmylou-harris-gulf-coast-highway"
    },
    {
      "id": 43,
      "title": "Half Light I",
      "year": "2010",
      "artistId": 26,
      "webUrl": "http://www.songnotes.cc/songs/29-arcade-fire-half-light-i"
    },
    {
      "id": 44,
      "title": "Half Light II (No Celebration)",
      "year": "2010",
      "artistId": 26,
      "webUrl": "http://www.songnotes.cc/songs/12-arcade-fire-half-light-ii-no-celebration"
    },
    {
      "id": 45,
      "title": "Harvest",
      "year": "1972",
      "artistId": 27,
      "webUrl": "http://www.songnotes.cc/songs/71-neil-young-harvest"
    },
    {
      "id": 46,
      "title": "Heart of Gold",
      "year": "1972",
      "artistId": 27,
      "webUrl": "http://www.songnotes.cc/songs/72-neil-young-heart-of-gold"
    },
    {
      "id": 47,
      "title": "Here I Go Again",
      "year": "1982",
      "artistId": 28,
      "webUrl": "http://www.songnotes.cc/songs/130-whitesnake-here-i-go-again"
    },
    {
      "id": 48,
      "title": "Hey Jealousy",
      "year": "1992",
      "artistId": 29,
      "webUrl": "http://www.songnotes.cc/songs/41-gin-blossoms-hey-jealousy"
    },
    {
      "id": 49,
      "title": "Hey Soul Sister",
      "year": "2009",
      "artistId": 30,
      "webUrl": "http://www.songnotes.cc/songs/129-train-hey-soul-sister"
    },
    {
      "id": 50,
      "title": "High and Dry",
      "year": "1995",
      "artistId": 15,
      "webUrl": "http://www.songnotes.cc/songs/37-radiohead-high-and-dry"
    },
    {
      "id": 51,
      "title": "Ho Hey",
      "year": "2012",
      "artistId": 10,
      "webUrl": "http://www.songnotes.cc/songs/34-the-lumineers-ho-hey"
    },
    {
      "id": 52,
      "title": "Hollywood Forever Cemetery Sings",
      "year": "2012",
      "artistId": 31,
      "webUrl": "http://www.songnotes.cc/songs/114-father-john-misty-hollywood-forever-cemetery-sings"
    },
    {
      "id": 53,
      "title": "Home",
      "year": "2009",
      "artistId": 32,
      "webUrl": "http://www.songnotes.cc/songs/93-edward-sharpe-magnetic-zeros-home"
    },
    {
      "id": 54,
      "title": "Honey Do",
      "year": "1983",
      "artistId": 8,
      "webUrl": "http://www.songnotes.cc/songs/97-jimmy-buffett-honey-do"
    },
    {
      "id": 55,
      "title": "Hospitals and Jails",
      "year": "2002",
      "artistId": 17,
      "webUrl": "http://www.songnotes.cc/songs/113-mason-jennings-hospitals-and-jails"
    },
    {
      "id": 56,
      "title": "Hotel California",
      "year": "1977",
      "artistId": 33,
      "webUrl": "http://www.songnotes.cc/songs/56-the-eagles-hotel-california"
    },
    {
      "id": 57,
      "title": "Hotel Yorba",
      "year": "2001",
      "artistId": 34,
      "webUrl": "http://www.songnotes.cc/songs/57-the-white-stripes-hotel-yorba"
    },
    {
      "id": 58,
      "title": "I Feel Home",
      "year": "1999",
      "artistId": 35,
      "webUrl": "http://www.songnotes.cc/songs/42-oar-i-feel-home"
    },
    {
      "id": 59,
      "title": "I Knew You Were Trouble",
      "year": "2012",
      "artistId": 36,
      "webUrl": "http://www.songnotes.cc/songs/85-taylor-swift-i-knew-you-were-trouble"
    },
    {
      "id": 60,
      "title": "I'm Writing a Novel",
      "year": "2012",
      "artistId": 31,
      "webUrl": "http://www.songnotes.cc/songs/111-father-john-misty-im-writing-a-novel"
    },
    {
      "id": 61,
      "title": "Island in the Sun",
      "year": "2001",
      "artistId": 37,
      "webUrl": "http://www.songnotes.cc/songs/43-weezer-island-in-the-sun"
    },
    {
      "id": 62,
      "title": "I Won't Give Up",
      "year": "2012",
      "artistId": 38,
      "webUrl": "http://www.songnotes.cc/songs/107-jason-mraz-i-wont-give-up"
    },
    {
      "id": 63,
      "title": "Jack & Diane",
      "year": "1982",
      "artistId": 39,
      "webUrl": "http://www.songnotes.cc/songs/99-john-mellencamp-jack-and-diane"
    },
    {
      "id": 64,
      "title": "Karma Police",
      "year": "1997",
      "artistId": 15,
      "webUrl": "http://www.songnotes.cc/songs/14-radiohead-karma-police"
    },
    {
      "id": 65,
      "title": "King of Spain",
      "year": "2010",
      "artistId": 1,
      "webUrl": "http://www.songnotes.cc/songs/80-the-tallest-man-on-earth-king-of-spain"
    },
    {
      "id": 66,
      "title": "King of the World",
      "year": "2012",
      "artistId": 22,
      "webUrl": "http://www.songnotes.cc/songs/76-first-aid-kit-king-of-the-world"
    },
    {
      "id": 67,
      "title": "Lean On Me",
      "year": "1972",
      "artistId": 40,
      "webUrl": "http://www.songnotes.cc/songs/83-bill-withers-lean-on-me"
    },
    {
      "id": 68,
      "title": "Little Talks",
      "year": "2012",
      "artistId": 41,
      "webUrl": "http://www.songnotes.cc/songs/105-of-monsters-and-men-little-talks"
    },
    {
      "id": 69,
      "title": "Live and Die",
      "year": "2012",
      "artistId": 42,
      "webUrl": "http://www.songnotes.cc/songs/115-the-avett-brothers-live-and-die"
    },
    {
      "id": 70,
      "title": "Lola",
      "year": "1970",
      "artistId": 43,
      "webUrl": "http://www.songnotes.cc/songs/128-the-kinks-lola"
    },
    {
      "id": 71,
      "title": "Lonesome Town",
      "year": "1958",
      "artistId": 44,
      "webUrl": "http://www.songnotes.cc/songs/126-ricky-nelson-lonesome-town"
    },
    {
      "id": 72,
      "title": "Love in the Library",
      "year": "1994",
      "artistId": 8,
      "webUrl": "http://www.songnotes.cc/songs/23-jimmy-buffett-love-in-the-library"
    },
    {
      "id": 73,
      "title": "Love Story",
      "year": "2008",
      "artistId": 36,
      "webUrl": "http://www.songnotes.cc/songs/61-taylor-swift-love-story"
    },
    {
      "id": 74,
      "title": "Margaritaville",
      "year": "1977",
      "artistId": 8,
      "webUrl": "http://www.songnotes.cc/songs/62-jimmy-buffett-margaritaville"
    },
    {
      "id": 75,
      "title": "Me and Julio Down by the Schoolyard",
      "year": "1972",
      "artistId": 45,
      "webUrl": "http://www.songnotes.cc/songs/31-paul-simon-me-and-julio-down-by-the-schoolyard"
    },
    {
      "id": 76,
      "title": "Migration",
      "year": "1974",
      "artistId": 8,
      "webUrl": "http://www.songnotes.cc/songs/66-jimmy-buffett-migration"
    },
    {
      "id": 77,
      "title": "Moonshadow",
      "year": "1971",
      "artistId": 23,
      "webUrl": "http://www.songnotes.cc/songs/73-cat-stevens-moonshadow"
    },
    {
      "id": 78,
      "title": "Mudfootball",
      "year": "2001",
      "artistId": 9,
      "webUrl": "http://www.songnotes.cc/songs/59-jack-johnson-mudfootball"
    },
    {
      "id": 79,
      "title": "My Antonia",
      "year": "2000",
      "artistId": 25,
      "webUrl": "http://www.songnotes.cc/songs/51-emmylou-harris-my-antonia"
    },
    {
      "id": 80,
      "title": "New Realization",
      "year": "1996",
      "artistId": 3,
      "webUrl": "http://www.songnotes.cc/songs/39-sublime-new-realization"
    },
    {
      "id": 81,
      "title": "No Surprises",
      "year": "1997",
      "artistId": 15,
      "webUrl": "http://www.songnotes.cc/songs/52-radiohead-no-surprises"
    },
    {
      "id": 82,
      "title": "Nothing",
      "year": "1997",
      "artistId": 17,
      "webUrl": "http://www.songnotes.cc/songs/15-mason-jennings-nothing"
    },
    {
      "id": 83,
      "title": "Nothing Else Matters",
      "year": "1992",
      "artistId": 46,
      "webUrl": "http://www.songnotes.cc/songs/58-metallica-nothing-else-matters"
    },
    {
      "id": 84,
      "title": "Only Son of the Ladiesman",
      "year": "2012",
      "artistId": 31,
      "webUrl": "http://www.songnotes.cc/songs/124-father-john-misty-only-son-of-the-ladiesman"
    },
    {
      "id": 85,
      "title": "Out on the Weekend",
      "year": "1972",
      "artistId": 27,
      "webUrl": "http://www.songnotes.cc/songs/70-neil-young-out-on-the-weekend"
    },
    {
      "id": 86,
      "title": "Party in the USA",
      "year": "2009",
      "artistId": 47,
      "webUrl": "http://www.songnotes.cc/songs/8-miley-cyrus-party-in-the-usa"
    },
    {
      "id": 87,
      "title": "Patience",
      "year": "1989",
      "artistId": 48,
      "webUrl": "http://www.songnotes.cc/songs/95-guns-n-roses-patience"
    },
    {
      "id": 88,
      "title": "Redemption Song",
      "year": "1980",
      "artistId": 49,
      "webUrl": "http://www.songnotes.cc/songs/67-bob-marley-redemption-song"
    },
    {
      "id": 89,
      "title": "Rivers of Babylon",
      "year": "1998",
      "artistId": 3,
      "webUrl": "http://www.songnotes.cc/songs/90-sublime-rivers-of-babylon"
    },
    {
      "id": 90,
      "title": "Rocket Man",
      "year": "1972",
      "artistId": 50,
      "webUrl": "http://www.songnotes.cc/songs/135-elton-john-rocket-man"
    },
    {
      "id": 91,
      "title": "Rodeo Clowns",
      "year": "2003",
      "artistId": 9,
      "webUrl": "http://www.songnotes.cc/songs/68-jack-johnson-rodeo-clowns"
    },
    {
      "id": 92,
      "title": "Send My Fond Regards to Lonelyville",
      "year": "2009",
      "artistId": 21,
      "webUrl": "http://www.songnotes.cc/songs/121-elvis-perkins-send-my-fond-regards-to-lonelyville"
    },
    {
      "id": 93,
      "title": "Sentimental Heart",
      "year": "2008",
      "artistId": 51,
      "webUrl": "http://www.songnotes.cc/songs/109-she-and-him-volume-one"
    },
    {
      "id": 94,
      "title": "Shelter from the Storm",
      "year": "1975",
      "artistId": 52,
      "webUrl": "http://www.songnotes.cc/songs/110-bob-dylan-shelter-from-the-storm"
    },
    {
      "id": 95,
      "title": "Some Nights",
      "year": "2012",
      "artistId": 12,
      "webUrl": "http://www.songnotes.cc/songs/103-fun-some-nights"
    },
    {
      "id": 96,
      "title": "Somewhere Only We Know",
      "year": "2004",
      "artistId": 53,
      "webUrl": "http://www.songnotes.cc/songs/82-keane-somewhere-only-we-know"
    },
    {
      "id": 97,
      "title": "Space Oddity",
      "year": "1969",
      "artistId": 54,
      "webUrl": "http://www.songnotes.cc/songs/136-david-bowie-space-oddity"
    },
    {
      "id": 98,
      "title": "Stay or Leave",
      "year": "2003",
      "artistId": 2,
      "webUrl": "http://www.songnotes.cc/songs/48-dave-matthews-stay-or-leave"
    },
    {
      "id": 99,
      "title": "Stubborn Love",
      "year": "2012",
      "artistId": 10,
      "webUrl": "http://www.songnotes.cc/songs/33-the-lumineers-stubborn-love"
    },
    {
      "id": 100,
      "title": "Stuck in the Middle With You",
      "year": "1972",
      "artistId": 55,
      "webUrl": "http://www.songnotes.cc/songs/91-stealers-wheel-stuck-in-the-middle-with-you"
    },
    {
      "id": 101,
      "title": "Submarines",
      "year": "2012",
      "artistId": 10,
      "webUrl": "http://www.songnotes.cc/songs/64-the-lumineers-submarines"
    },
    {
      "id": 102,
      "title": "Sugar Mountain",
      "year": "1977",
      "artistId": 27,
      "webUrl": "http://www.songnotes.cc/songs/106-neil-young-sugar-mountain"
    },
    {
      "id": 103,
      "title": "Summer of '69",
      "year": "1984",
      "artistId": 56,
      "webUrl": "http://www.songnotes.cc/songs/65-bryan-adams-summer-of-69"
    },
    {
      "id": 104,
      "title": "Sweet Home Alabama",
      "year": "1974",
      "artistId": 57,
      "webUrl": "http://www.songnotes.cc/songs/133-lynyrd-skynyrd-sweet-home-alabama"
    },
    {
      "id": 105,
      "title": "Tangled Up in Blue",
      "year": "1975",
      "artistId": 52,
      "webUrl": "http://www.songnotes.cc/songs/22-bob-dylan-tangled-up-in-blue"
    },
    {
      "id": 106,
      "title": "The Drugs Don't Work",
      "year": "2001",
      "artistId": 58,
      "webUrl": "http://www.songnotes.cc/songs/49-ben-harper-the-drugs-dont-work"
    },
    {
      "id": 107,
      "title": "The General",
      "year": "2000",
      "artistId": 59,
      "webUrl": "http://www.songnotes.cc/songs/26-dispatch-the-general"
    },
    {
      "id": 108,
      "title": "The Lion's Roar",
      "year": "2012",
      "artistId": 22,
      "webUrl": "http://www.songnotes.cc/songs/89-first-aid-kit-the-lions-roar"
    },
    {
      "id": 109,
      "title": "The Man in Me",
      "year": "1970",
      "artistId": 52,
      "webUrl": "http://www.songnotes.cc/songs/24-bob-dylan-the-man-in-me"
    },
    {
      "id": 110,
      "title": "The Mother We Share",
      "year": "2013",
      "artistId": 60,
      "webUrl": "http://www.songnotes.cc/songs/127-chvrches-the-mother-we-share"
    },
    {
      "id": 111,
      "title": "The Needle and the Damage Done",
      "year": "1972",
      "artistId": 27,
      "webUrl": "http://www.songnotes.cc/songs/87-neil-young-the-needle-and-the-damage-done"
    },
    {
      "id": 112,
      "title": "The Weather is Here, Wish You Were Beautiful",
      "year": "1981",
      "artistId": 8,
      "webUrl": "http://www.songnotes.cc/songs/19-jimmy-buffett-the-weather-is-here-wish-you-were-beautiful"
    },
    {
      "id": 113,
      "title": "The Weight",
      "year": "1968",
      "artistId": 61,
      "webUrl": "http://www.songnotes.cc/songs/40-the-band-the-weight"
    },
    {
      "id": 114,
      "title": "Tin Cup Chalice",
      "year": "1974",
      "artistId": 8,
      "webUrl": "http://www.songnotes.cc/songs/25-jimmy-buffett-tin-cup-chalice"
    },
    {
      "id": 115,
      "title": "Tiny Dancer",
      "year": "1971",
      "artistId": 50,
      "webUrl": "http://www.songnotes.cc/songs/13-elton-john-tiny-dancer"
    },
    {
      "id": 116,
      "title": "Trying to Reason with Hurricane Season",
      "year": "1974",
      "artistId": 8,
      "webUrl": "http://www.songnotes.cc/songs/18-jimmy-buffett-trying-to-reason-with-hurricane-season"
    },
    {
      "id": 117,
      "title": "Under the Milky Way",
      "year": "1988",
      "artistId": 62,
      "webUrl": "http://www.songnotes.cc/songs/17-the-church-under-the-milky-way"
    },
    {
      "id": 118,
      "title": "Viva La Vida",
      "year": "2008",
      "artistId": 63,
      "webUrl": "http://www.songnotes.cc/songs/53-coldplay-viva-la-vida"
    },
    {
      "id": 119,
      "title": "Watching the Wheels",
      "year": "1981",
      "artistId": 64,
      "webUrl": "http://www.songnotes.cc/songs/5-john-lennon-watching-the-wheels"
    },
    {
      "id": 120,
      "title": "Way Over Yonder in the Minor Key",
      "year": "1998",
      "artistId": 65,
      "webUrl": "http://www.songnotes.cc/songs/112-billy-bragg-wilco-way-over-yonder-in-the-minor-key"
    },
    {
      "id": 121,
      "title": "We Are Never Ever Getting Back Together",
      "year": "2012",
      "artistId": 36,
      "webUrl": "http://www.songnotes.cc/songs/88-taylor-swift-we-are-never-ever-getting-back-together"
    },
    {
      "id": 122,
      "title": "We're Going To Be Friends",
      "year": "2001",
      "artistId": 34,
      "webUrl": "http://www.songnotes.cc/songs/118-the-white-stripes-we-are-going-to-be-friends"
    },
    {
      "id": 123,
      "title": "What I Got",
      "year": "1996",
      "artistId": 3,
      "webUrl": "http://www.songnotes.cc/songs/20-sublime-what-i-got"
    },
    {
      "id": 124,
      "title": "Wind and Walls",
      "year": "2012",
      "artistId": 1,
      "webUrl": "http://www.songnotes.cc/songs/79-the-tallest-man-on-earth-wind-and-walls"
    },
    {
      "id": 125,
      "title": "With a Little Help From My Friends",
      "year": "1967",
      "artistId": 66,
      "webUrl": "http://www.songnotes.cc/songs/81-the-beatles-with-a-little-help-from-my-friends"
    },
    {
      "id": 126,
      "title": "Ya Hey",
      "year": "2013",
      "artistId": 67,
      "webUrl": "http://www.songnotes.cc/songs/125-vampire-weekend-ya-hey"
    },
    {
      "id": 127,
      "title": "You Belong With Me",
      "year": "2008",
      "artistId": 36,
      "webUrl": "http://www.songnotes.cc/songs/44-taylor-swift-you-belong-with-me"
    },
    {
      "id": 128,
      "title": "You Love Me",
      "year": "2004",
      "artistId": 68,
      "webUrl": "http://www.songnotes.cc/songs/134-devotchka-you-love-me"
    }
  ]
}
